{
  "siteName": "Inachevé d'imprimer",
  "Description": "Inachevé d'imprimer est un espace d’échanges consacrés à la publication hybride, en particulier lorsqu'elle se fait expérimentale, systémique et collaborative.",
  "colorlogo": "",
  "Footer": "",
  "Authors": "pub nerd folks",
  "Keywords": ""
}